[
  {
    "name": "name",
    "type": "string",
    "validation": {
      "required": true,
      "max-length": 128
    }
  },
  {
    "name": "email",
    "type": "string",
    "validation": {
      "required": true,
      "max-lenth": 128,
      "regex": ""
    }
  },
  {
    "name": "gender",
    "type": "select",
    "options": [
      {
        "value": "male",
        "text": "Male"
      },
      {
        "value": "female",
        "text": "Female"
      },
      {
        "value": "secret",
        "text": "Won't tell"
      }
    ],
    "validation":{
      "required": true
    }
  },
  {
    "name": "avatar",
    "type": "file",
    "validation":{
      "required": true,
      "extensions_in": [
        ".jpg",
        ".jpeg",
        ".gif",
        ".png"
      ]
    }
  },
    {
    "name": "password",
    "type": "password",
    "validation": {
      "required": true,
      "max-length": 128,
      "regex":""
    }
  },
    {
    "name": "password_confirmation",
    "type": "string",
    "validation": {
      "required": true,
      "max-length": 128,
      "same_as": "password"
    },
    "omit_at_admin": true
  }
]
